{"failedCount":0,"prefixedPath":"classpath:examples\/api\/get-user.feature","packageQualifiedName":"examples.api.get-user","loopIndex":-1,"relativePath":"examples\/api\/get-user.feature","scenarioResults":[{"sectionIndex":0,"stepResults":[{"result":{"nanos":193417,"startTime":1728302179758,"endTime":1728302179758,"millis":0.193417,"status":"passed"},"step":{"background":true,"line":4,"prefix":"*","index":0,"text":"url 'https:\/\/gorest.co.in\/public\/v1'"},"stepLog":"17:26:19.757 karate.env system property was: null \n"},{"result":{"nanos":227042,"startTime":1728302179758,"endTime":1728302179758,"millis":0.227042,"status":"passed"},"step":{"background":true,"line":5,"prefix":"*","index":1,"text":"def authToken = 'b6aa90c55a3f83552a24ef7962bed996ea747cef8d7f831d356de59cddc558a8'"}},{"result":{"nanos":108583,"startTime":1728302179758,"endTime":1728302179758,"millis":0.108583,"status":"passed"},"step":{"background":true,"line":6,"prefix":"*","index":2,"text":"header Authorization = 'Bearer ' + authToken"}},{"result":{"nanos":239792,"startTime":1728302179758,"endTime":1728302179758,"millis":0.239792,"status":"passed"},"step":{"line":9,"prefix":"Given","index":0,"text":"path 'users', '7454254'"}},{"result":{"nanos":856806208,"startTime":1728302179758,"endTime":1728302180615,"millis":856.806208,"status":"passed"},"step":{"line":10,"prefix":"When","index":1,"text":"method GET"},"stepLog":"17:26:19.759 request:\n1 > GET https:\/\/gorest.co.in\/public\/v1\/users\/7454254\n1 > Authorization: Bearer b6aa90c55a3f83552a24ef7962bed996ea747cef8d7f831d356de59cddc558a8\n1 > Host: gorest.co.in\n1 > Connection: Keep-Alive\n1 > User-Agent: Apache-HttpClient\/4.5.14 (Java\/23)\n1 > Accept-Encoding: gzip,deflate\n\n\n17:26:20.615 response time in milliseconds: 856\n1 < 200\n1 < Date: Mon, 07 Oct 2024 11:56:20 GMT\n1 < Content-Type: application\/json; charset=utf-8\n1 < Transfer-Encoding: chunked\n1 < Connection: keep-alive\n1 < Cache-Control: max-age=0, private, must-revalidate\n1 < etag: W\/\"c1348e1ef73fa3bf8a797794f6300047\"\n1 < referrer-policy: strict-origin-when-cross-origin\n1 < vary: Origin\n1 < x-content-type-options: nosniff\n1 < x-download-options: noopen\n1 < x-frame-options: SAMEORIGIN\n1 < x-permitted-cross-domain-policies: none\n1 < x-ratelimit-limit: 90\n1 < x-ratelimit-remaining: 87\n1 < x-ratelimit-reset: 3\n1 < x-request-id: ffe5e704-6d3e-4b3b-9efa-fb2c3901c17f\n1 < x-runtime: 0.137301\n1 < x-xss-protection: 0\n1 < CF-Cache-Status: DYNAMIC\n1 < Report-To: {\"endpoints\":[{\"url\":\"https:\\\/\\\/a.nel.cloudflare.com\\\/report\\\/v4?s=PSjGesz9aYj8RECen3vWOExKbS2%2FO8l%2B9bMLk6P8%2FwP7fh0YhV6DSCsqyMtxBI6Ita9B3LfF%2FodJTvwnxy68FAxlu0ALqjLYfrY%2BJJlINnGofaaDV71vMOZ6kRAmRvU%3D\"}],\"group\":\"cf-nel\",\"max_age\":604800}\n1 < NEL: {\"success_fraction\":0,\"report_to\":\"cf-nel\",\"max_age\":604800}\n1 < Server: cloudflare\n1 < CF-RAY: 8cedb510d85a3d9f-SIN\n{\"meta\":null,\"data\":{\"id\":7454254,\"name\":\"Ankit Rajput\",\"email\":\"ankitrajput98@example.com\",\"gender\":\"male\",\"status\":\"active\"}}\n\n"},{"result":{"nanos":7542,"startTime":1728302180615,"endTime":1728302180615,"millis":0.007542,"status":"passed"},"step":{"line":11,"prefix":"Then","index":2,"text":"status 200"}},{"result":{"nanos":440417,"startTime":1728302180615,"endTime":1728302180615,"millis":0.440417,"status":"passed"},"step":{"line":12,"prefix":"And","index":3,"text":"match response.data.id == 7454254"}},{"result":{"nanos":200792,"startTime":1728302180616,"endTime":1728302180616,"millis":0.200792,"status":"passed"},"step":{"line":13,"prefix":"And","index":4,"text":"match response.data.name == 'Ankit Rajput'"}},{"result":{"nanos":169125,"startTime":1728302180616,"endTime":1728302180616,"millis":0.169125,"status":"passed"},"step":{"line":14,"prefix":"And","index":5,"text":"match response.data.email == 'ankitrajput98@example.com'"}},{"result":{"nanos":184917,"startTime":1728302180616,"endTime":1728302180616,"millis":0.184917,"status":"passed"},"step":{"line":15,"prefix":"And","index":6,"text":"match response.data.gender == 'male'"}},{"result":{"nanos":159708,"startTime":1728302180616,"endTime":1728302180616,"millis":0.159708,"status":"passed"},"step":{"line":16,"prefix":"And","index":7,"text":"match response.data.status == 'active'"}},{"result":{"nanos":590709,"startTime":1728302180617,"endTime":1728302180618,"millis":0.590709,"status":"passed"},"step":{"line":17,"prefix":"And","index":8,"text":"print response"},"stepLog":"17:26:20.617 [print] {\n  \"meta\": null,\n  \"data\": {\n    \"id\": 7454254,\n    \"name\": \"Ankit Rajput\",\n    \"email\": \"ankitrajput98@example.com\",\n    \"gender\": \"male\",\n    \"status\": \"active\"\n  }\n}\n \n"}],"executorName":"pool-2-thread-3","line":8,"name":"Fetch details of an existing user","description":"","durationMillis":859.328252,"startTime":1728302179754,"failed":false,"refId":"[1:8]","endTime":1728302180617,"exampleIndex":-1},{"sectionIndex":1,"stepResults":[{"result":{"nanos":187041,"startTime":1728302179756,"endTime":1728302179756,"millis":0.187041,"status":"passed"},"step":{"background":true,"line":4,"prefix":"*","index":0,"text":"url 'https:\/\/gorest.co.in\/public\/v1'"},"stepLog":"17:26:19.756 karate.env system property was: null \n"},{"result":{"nanos":291208,"startTime":1728302179757,"endTime":1728302179757,"millis":0.291208,"status":"passed"},"step":{"background":true,"line":5,"prefix":"*","index":1,"text":"def authToken = 'b6aa90c55a3f83552a24ef7962bed996ea747cef8d7f831d356de59cddc558a8'"}},{"result":{"nanos":121791,"startTime":1728302179757,"endTime":1728302179757,"millis":0.121791,"status":"passed"},"step":{"background":true,"line":6,"prefix":"*","index":2,"text":"header Authorization = 'Bearer ' + authToken"}},{"result":{"nanos":241291,"startTime":1728302179757,"endTime":1728302179757,"millis":0.241291,"status":"passed"},"step":{"line":21,"prefix":"Given","index":0,"text":"path 'users', '999999'"}},{"result":{"nanos":608044750,"startTime":1728302179757,"endTime":1728302180365,"millis":608.04475,"status":"passed"},"step":{"line":22,"prefix":"When","index":1,"text":"method GET"},"stepLog":"17:26:19.758 request:\n1 > GET https:\/\/gorest.co.in\/public\/v1\/users\/999999\n1 > Authorization: Bearer b6aa90c55a3f83552a24ef7962bed996ea747cef8d7f831d356de59cddc558a8\n1 > Host: gorest.co.in\n1 > Connection: Keep-Alive\n1 > User-Agent: Apache-HttpClient\/4.5.14 (Java\/23)\n1 > Accept-Encoding: gzip,deflate\n\n\n17:26:20.365 response time in milliseconds: 607\n1 < 404\n1 < Date: Mon, 07 Oct 2024 11:56:20 GMT\n1 < Content-Type: application\/json; charset=utf-8\n1 < Transfer-Encoding: chunked\n1 < Connection: keep-alive\n1 < Cache-Control: no-cache\n1 < referrer-policy: strict-origin-when-cross-origin\n1 < vary: Origin\n1 < x-content-type-options: nosniff\n1 < x-download-options: noopen\n1 < x-frame-options: SAMEORIGIN\n1 < x-permitted-cross-domain-policies: none\n1 < x-ratelimit-limit: 90\n1 < x-ratelimit-remaining: 88\n1 < x-ratelimit-reset: 2\n1 < x-request-id: 5dee1c69-e20a-4e13-8cde-ab9f001e8bcb\n1 < x-runtime: 0.159695\n1 < x-xss-protection: 0\n1 < CF-Cache-Status: DYNAMIC\n1 < Report-To: {\"endpoints\":[{\"url\":\"https:\\\/\\\/a.nel.cloudflare.com\\\/report\\\/v4?s=uDQiYBgXU9dSfbbJMdIBaIgwOTmpKDM5BvGwtCf2Nu%2BIe0023MxPTVKK4Q1TV%2FWND73M9vc5%2FmvrIz4ett%2FNtem5IIwLYR%2FWJg7D2zApubErTUCOHjGr%2Fzzb6xEx%2FyU%3D\"}],\"group\":\"cf-nel\",\"max_age\":604800}\n1 < NEL: {\"success_fraction\":0,\"report_to\":\"cf-nel\",\"max_age\":604800}\n1 < Server: cloudflare\n1 < CF-RAY: 8cedb510ba533faa-SIN\n{\"meta\":null,\"data\":{\"message\":\"Resource not found\"}}\n\n"},{"result":{"nanos":7292,"startTime":1728302180365,"endTime":1728302180365,"millis":0.007292,"status":"passed"},"step":{"line":23,"prefix":"Then","index":2,"text":"status 404"}},{"result":{"nanos":348417,"startTime":1728302180365,"endTime":1728302180365,"millis":0.348417,"status":"passed"},"step":{"line":24,"prefix":"And","index":3,"text":"match response.data.message == \"Resource not found\""}},{"result":{"nanos":864208,"startTime":1728302180366,"endTime":1728302180367,"millis":0.864208,"status":"passed"},"step":{"line":25,"prefix":"And","index":4,"text":"print response"},"stepLog":"17:26:20.367 [print] {\n  \"meta\": null,\n  \"data\": {\n    \"message\": \"Resource not found\"\n  }\n}\n \n"}],"executorName":"pool-2-thread-2","line":20,"name":"Fail to fetch user details with an invalid id","description":"","durationMillis":610.105998,"startTime":1728302179754,"failed":false,"refId":"[2:20]","endTime":1728302180367,"exampleIndex":-1},{"sectionIndex":2,"stepResults":[{"result":{"nanos":173291,"startTime":1728302179756,"endTime":1728302179756,"millis":0.173291,"status":"passed"},"step":{"background":true,"line":4,"prefix":"*","index":0,"text":"url 'https:\/\/gorest.co.in\/public\/v1'"},"stepLog":"17:26:19.756 karate.env system property was: null \n"},{"result":{"nanos":247792,"startTime":1728302179757,"endTime":1728302179757,"millis":0.247792,"status":"passed"},"step":{"background":true,"line":5,"prefix":"*","index":1,"text":"def authToken = 'b6aa90c55a3f83552a24ef7962bed996ea747cef8d7f831d356de59cddc558a8'"}},{"result":{"nanos":110542,"startTime":1728302179757,"endTime":1728302179757,"millis":0.110542,"status":"passed"},"step":{"background":true,"line":6,"prefix":"*","index":2,"text":"header Authorization = 'Bearer ' + authToken"}},{"result":{"nanos":241792,"startTime":1728302179757,"endTime":1728302179757,"millis":0.241792,"status":"passed"},"step":{"line":29,"prefix":"Given","index":0,"text":"path 'users', 'abc123'"}},{"result":{"nanos":561553666,"startTime":1728302179757,"endTime":1728302180319,"millis":561.553666,"status":"passed"},"step":{"line":30,"prefix":"When","index":1,"text":"method GET"},"stepLog":"17:26:19.758 request:\n1 > GET https:\/\/gorest.co.in\/public\/v1\/users\/abc123\n1 > Authorization: Bearer b6aa90c55a3f83552a24ef7962bed996ea747cef8d7f831d356de59cddc558a8\n1 > Host: gorest.co.in\n1 > Connection: Keep-Alive\n1 > User-Agent: Apache-HttpClient\/4.5.14 (Java\/23)\n1 > Accept-Encoding: gzip,deflate\n\n\n17:26:20.317 response time in milliseconds: 557\n1 < 404\n1 < Date: Mon, 07 Oct 2024 11:56:20 GMT\n1 < Content-Type: application\/json; charset=utf-8\n1 < Transfer-Encoding: chunked\n1 < Connection: keep-alive\n1 < Cache-Control: no-cache\n1 < referrer-policy: strict-origin-when-cross-origin\n1 < vary: Origin\n1 < x-content-type-options: nosniff\n1 < x-download-options: noopen\n1 < x-frame-options: SAMEORIGIN\n1 < x-permitted-cross-domain-policies: none\n1 < x-ratelimit-limit: 90\n1 < x-ratelimit-remaining: 89\n1 < x-ratelimit-reset: 2\n1 < x-request-id: c274ac0a-82c7-4407-a010-95f79766f9ff\n1 < x-runtime: 0.173454\n1 < x-xss-protection: 0\n1 < CF-Cache-Status: DYNAMIC\n1 < Report-To: {\"endpoints\":[{\"url\":\"https:\\\/\\\/a.nel.cloudflare.com\\\/report\\\/v4?s=RELTamOzHyKUEFclH5SuFRD6BqDxQGi7AZi6m3qwmjjmOobZAoyTkBzTP%2FaxWKuENI6OzjGXmvLloinFQZd6NCLR92wmmLWij8kwktSWCLxdnRdyrjFE1UCoYPprsVc%3D\"}],\"group\":\"cf-nel\",\"max_age\":604800}\n1 < NEL: {\"success_fraction\":0,\"report_to\":\"cf-nel\",\"max_age\":604800}\n1 < Server: cloudflare\n1 < CF-RAY: 8cedb510dc383e2b-SIN\n{\"meta\":null,\"data\":{\"message\":\"Resource not found\"}}\n\n"},{"result":{"nanos":29625,"startTime":1728302180319,"endTime":1728302180319,"millis":0.029625,"status":"passed"},"step":{"line":31,"prefix":"Then","index":2,"text":"status 404"}},{"result":{"nanos":996084,"startTime":1728302180319,"endTime":1728302180320,"millis":0.996084,"status":"passed"},"step":{"line":32,"prefix":"And","index":3,"text":"match response.data.message == \"Resource not found\""}},{"result":{"nanos":2286584,"startTime":1728302180320,"endTime":1728302180322,"millis":2.286584,"status":"passed"},"step":{"line":33,"prefix":"And","index":4,"text":"print response"},"stepLog":"17:26:20.322 [print] {\n  \"meta\": null,\n  \"data\": {\n    \"message\": \"Resource not found\"\n  }\n}\n \n"}],"executorName":"pool-2-thread-1","line":28,"name":"Fail to fetch the user with a malformed id","description":"","durationMillis":565.639376,"startTime":1728302179755,"failed":false,"refId":"[3:28]","endTime":1728302180323,"exampleIndex":-1},{"sectionIndex":3,"stepResults":[{"result":{"nanos":221500,"startTime":1728302179756,"endTime":1728302179756,"millis":0.2215,"status":"passed"},"step":{"background":true,"line":4,"prefix":"*","index":0,"text":"url 'https:\/\/gorest.co.in\/public\/v1'"},"stepLog":"17:26:19.756 karate.env system property was: null \n"},{"result":{"nanos":267708,"startTime":1728302179757,"endTime":1728302179757,"millis":0.267708,"status":"passed"},"step":{"background":true,"line":5,"prefix":"*","index":1,"text":"def authToken = 'b6aa90c55a3f83552a24ef7962bed996ea747cef8d7f831d356de59cddc558a8'"}},{"result":{"nanos":146750,"startTime":1728302179757,"endTime":1728302179757,"millis":0.14675,"status":"passed"},"step":{"background":true,"line":6,"prefix":"*","index":2,"text":"header Authorization = 'Bearer ' + authToken"}},{"result":{"nanos":244208,"startTime":1728302179757,"endTime":1728302179757,"millis":0.244208,"status":"passed"},"step":{"line":37,"prefix":"Given","index":0,"text":"path 'users','7453627'"}},{"result":{"nanos":720524750,"startTime":1728302179757,"endTime":1728302180478,"millis":720.52475,"status":"passed"},"step":{"line":38,"prefix":"When","index":1,"text":"method GET"},"stepLog":"17:26:19.758 request:\n1 > GET https:\/\/gorest.co.in\/public\/v1\/users\/7453627\n1 > Authorization: Bearer b6aa90c55a3f83552a24ef7962bed996ea747cef8d7f831d356de59cddc558a8\n1 > Host: gorest.co.in\n1 > Connection: Keep-Alive\n1 > User-Agent: Apache-HttpClient\/4.5.14 (Java\/23)\n1 > Accept-Encoding: gzip,deflate\n\n\n17:26:20.477 response time in milliseconds: 719\n1 < 200\n1 < Date: Mon, 07 Oct 2024 11:56:20 GMT\n1 < Content-Type: application\/json; charset=utf-8\n1 < Transfer-Encoding: chunked\n1 < Connection: keep-alive\n1 < Cache-Control: max-age=0, private, must-revalidate\n1 < etag: W\/\"39a6ee4754d74a2c936551e4e7565939\"\n1 < referrer-policy: strict-origin-when-cross-origin\n1 < vary: Origin\n1 < x-content-type-options: nosniff\n1 < x-download-options: noopen\n1 < x-frame-options: SAMEORIGIN\n1 < x-permitted-cross-domain-policies: none\n1 < x-ratelimit-limit: 90\n1 < x-ratelimit-remaining: 88\n1 < x-ratelimit-reset: 2\n1 < x-request-id: 187b8394-e231-45f1-8b9d-24621699a2a0\n1 < x-runtime: 0.305188\n1 < x-xss-protection: 0\n1 < CF-Cache-Status: DYNAMIC\n1 < Report-To: {\"endpoints\":[{\"url\":\"https:\\\/\\\/a.nel.cloudflare.com\\\/report\\\/v4?s=Xd6HntMjJcRSz6ixcezOW%2BZ2c3iqnbrjS5iMweyqDl%2Bghww4%2BahLuBUKEoEgSewaI9tHUDbypkEQr4vtycFfmXFTezPxyOwS5m5KsSJxVKUWo6iIuqwZf9mGQHcQZmQ%3D\"}],\"group\":\"cf-nel\",\"max_age\":604800}\n1 < NEL: {\"success_fraction\":0,\"report_to\":\"cf-nel\",\"max_age\":604800}\n1 < Server: cloudflare\n1 < CF-RAY: 8cedb510ba9640ee-SIN\n{\"meta\":null,\"data\":{\"id\":7453627,\"name\":\"Ankit Kumar\",\"email\":\"ankit.kumar@example.com\",\"gender\":\"female\",\"status\":\"inactive\"}}\n\n"},{"result":{"nanos":19208,"startTime":1728302180478,"endTime":1728302180478,"millis":0.019208,"status":"passed"},"step":{"line":39,"prefix":"Then","index":2,"text":"status 200"}},{"result":{"nanos":776000,"startTime":1728302180478,"endTime":1728302180479,"millis":0.776,"status":"passed"},"step":{"line":40,"prefix":"And","index":3,"text":"match response.data.message == \"#notpresent\""}},{"result":{"nanos":844792,"startTime":1728302180479,"endTime":1728302180480,"millis":0.844792,"status":"passed"},"step":{"line":41,"prefix":"And","index":4,"text":"print response"},"stepLog":"17:26:20.479 [print] {\n  \"meta\": null,\n  \"data\": {\n    \"id\": 7453627,\n    \"name\": \"Ankit Kumar\",\n    \"email\": \"ankit.kumar@example.com\",\n    \"gender\": \"female\",\n    \"status\": \"inactive\"\n  }\n}\n \n"}],"executorName":"pool-2-thread-4","line":36,"name":"Fail to fetch details for a deleted user ID","description":"","durationMillis":723.044916,"startTime":1728302179755,"failed":false,"refId":"[4:36]","endTime":1728302180480,"exampleIndex":-1},{"sectionIndex":4,"stepResults":[{"result":{"nanos":304041,"startTime":1728302180330,"endTime":1728302180330,"millis":0.304041,"status":"passed"},"step":{"background":true,"line":4,"prefix":"*","index":0,"text":"url 'https:\/\/gorest.co.in\/public\/v1'"},"stepLog":"17:26:20.329 karate.env system property was: null \n"},{"result":{"nanos":380000,"startTime":1728302180330,"endTime":1728302180330,"millis":0.38,"status":"passed"},"step":{"background":true,"line":5,"prefix":"*","index":1,"text":"def authToken = 'b6aa90c55a3f83552a24ef7962bed996ea747cef8d7f831d356de59cddc558a8'"}},{"result":{"nanos":179167,"startTime":1728302180330,"endTime":1728302180330,"millis":0.179167,"status":"passed"},"step":{"background":true,"line":6,"prefix":"*","index":2,"text":"header Authorization = 'Bearer ' + authToken"}},{"result":{"nanos":237083,"startTime":1728302180331,"endTime":1728302180331,"millis":0.237083,"status":"passed"},"step":{"line":45,"prefix":"Given","index":0,"text":"path 'users'"}},{"result":{"nanos":610643125,"startTime":1728302180331,"endTime":1728302180942,"millis":610.643125,"status":"passed"},"step":{"line":46,"prefix":"When","index":1,"text":"method GET"},"stepLog":"17:26:20.332 request:\n1 > GET https:\/\/gorest.co.in\/public\/v1\/users\n1 > Authorization: Bearer b6aa90c55a3f83552a24ef7962bed996ea747cef8d7f831d356de59cddc558a8\n1 > Host: gorest.co.in\n1 > Connection: Keep-Alive\n1 > User-Agent: Apache-HttpClient\/4.5.14 (Java\/23)\n1 > Accept-Encoding: gzip,deflate\n\n\n17:26:20.941 response time in milliseconds: 609\n1 < 200\n1 < Date: Mon, 07 Oct 2024 11:56:20 GMT\n1 < Content-Type: application\/json; charset=utf-8\n1 < Transfer-Encoding: chunked\n1 < Connection: keep-alive\n1 < Cache-Control: max-age=0, private, must-revalidate\n1 < etag: W\/\"c571160d6643a4f592b63c8318d65dcf\"\n1 < referrer-policy: strict-origin-when-cross-origin\n1 < vary: Origin\n1 < x-content-type-options: nosniff\n1 < x-download-options: noopen\n1 < x-frame-options: SAMEORIGIN\n1 < x-permitted-cross-domain-policies: none\n1 < x-ratelimit-limit: 90\n1 < x-ratelimit-remaining: 86\n1 < x-ratelimit-reset: 4\n1 < x-request-id: 10b7137b-4778-4012-a332-ee8b1fa65288\n1 < x-runtime: 0.168524\n1 < x-xss-protection: 0\n1 < cf-cache-status: DYNAMIC\n1 < Report-To: {\"endpoints\":[{\"url\":\"https:\\\/\\\/a.nel.cloudflare.com\\\/report\\\/v4?s=y7mf%2BuMrgxRJa0qwNaa%2F5ZTKPDKxNujTwY4s7M1zy%2BYOiK%2BxzMlWoNBYmhmln9WnU0IdGl8eeFu34iA5ZmfND%2FMTEC25URUqm6N5FdaGAF%2FHSuuhnFXGebw%2BUikW0o0%3D\"}],\"group\":\"cf-nel\",\"max_age\":604800}\n1 < NEL: {\"success_fraction\":0,\"report_to\":\"cf-nel\",\"max_age\":604800}\n1 < Server: cloudflare\n1 < CF-RAY: 8cedb5146b034035-SIN\n{\"meta\":{\"pagination\":{\"total\":2909,\"pages\":291,\"page\":1,\"limit\":10,\"links\":{\"previous\":null,\"current\":\"https:\/\/gorest.co.in\/public\/v1\/users?page=1\",\"next\":\"https:\/\/gorest.co.in\/public\/v1\/users?page=2\"}}},\"data\":[{\"id\":7454255,\"name\":\"Ankit Kumar\",\"email\":\"ankit.kumar987@example.com\",\"gender\":\"female\",\"status\":\"inactive\"},{\"id\":7454254,\"name\":\"Ankit Rajput\",\"email\":\"ankitrajput98@example.com\",\"gender\":\"male\",\"status\":\"active\"},{\"id\":7454248,\"name\":\"Ankit Rajput\",\"email\":\"ankitrajput.987654321@example.com\",\"gender\":\"male\",\"status\":\"active\"},{\"id\":7454238,\"name\":\"Ankit Rajput\",\"email\":\"ankitrajput.98765432@example.com\",\"gender\":\"male\",\"status\":\"active\"},{\"id\":7454234,\"name\":\"Ankit Rajput\",\"email\":\"ankitrajput.9876543@example.com\",\"gender\":\"male\",\"status\":\"active\"},{\"id\":7454123,\"name\":\"Ankit Rajput\",\"email\":\"ankitrajput.987654@example.com\",\"gender\":\"male\",\"status\":\"active\"},{\"id\":7453627,\"name\":\"Ankit Kumar\",\"email\":\"ankit.kumar@example.com\",\"gender\":\"female\",\"status\":\"inactive\"},{\"id\":7452059,\"name\":\"Ankit Rajput\",\"email\":\"an@gmail.com\",\"gender\":\"male\",\"status\":\"active\"},{\"id\":7452058,\"name\":\"Ankit Rajput\",\"email\":\"ankitrajput1234@gmail.com\",\"gender\":\"male\",\"status\":\"active\"},{\"id\":7452023,\"name\":\"Ankit Rajput\",\"email\":\"ankitrajput.unique@example.com\",\"gender\":\"male\",\"status\":\"active\"}]}\n\n"},{"result":{"nanos":5417,"startTime":1728302180942,"endTime":1728302180942,"millis":0.005417,"status":"passed"},"step":{"line":47,"prefix":"Then","index":2,"text":"status 200"}},{"result":{"nanos":359875,"startTime":1728302180942,"endTime":1728302180942,"millis":0.359875,"status":"passed"},"step":{"line":48,"prefix":"And","index":3,"text":"def totalUsers = response.meta.pagination.total"}},{"result":{"nanos":226833,"startTime":1728302180942,"endTime":1728302180942,"millis":0.226833,"status":"passed"},"step":{"line":49,"prefix":"And","index":4,"text":"assert totalUsers > 0"}},{"result":{"nanos":777333,"startTime":1728302180942,"endTime":1728302180943,"millis":0.777333,"status":"passed"},"step":{"line":50,"prefix":"And","index":5,"text":"print response"},"stepLog":"17:26:20.943 [print] {\n  \"meta\": {\n    \"pagination\": {\n      \"total\": 2909,\n      \"pages\": 291,\n      \"page\": 1,\n      \"limit\": 10,\n      \"links\": {\n        \"previous\": null,\n        \"current\": \"https:\/\/gorest.co.in\/public\/v1\/users?page=1\",\n        \"next\": \"https:\/\/gorest.co.in\/public\/v1\/users?page=2\"\n      }\n    }\n  },\n  \"data\": [\n    {\n      \"id\": 7454255,\n      \"name\": \"Ankit Kumar\",\n      \"email\": \"ankit.kumar987@example.com\",\n      \"gender\": \"female\",\n      \"status\": \"inactive\"\n    },\n    {\n      \"id\": 7454254,\n      \"name\": \"Ankit Rajput\",\n      \"email\": \"ankitrajput98@example.com\",\n      \"gender\": \"male\",\n      \"status\": \"active\"\n    },\n    {\n      \"id\": 7454248,\n      \"name\": \"Ankit Rajput\",\n      \"email\": \"ankitrajput.987654321@example.com\",\n      \"gender\": \"male\",\n      \"status\": \"active\"\n    },\n    {\n      \"id\": 7454238,\n      \"name\": \"Ankit Rajput\",\n      \"email\": \"ankitrajput.98765432@example.com\",\n      \"gender\": \"male\",\n      \"status\": \"active\"\n    },\n    {\n      \"id\": 7454234,\n      \"name\": \"Ankit Rajput\",\n      \"email\": \"ankitrajput.9876543@example.com\",\n      \"gender\": \"male\",\n      \"status\": \"active\"\n    },\n    {\n      \"id\": 7454123,\n      \"name\": \"Ankit Rajput\",\n      \"email\": \"ankitrajput.987654@example.com\",\n      \"gender\": \"male\",\n      \"status\": \"active\"\n    },\n    {\n      \"id\": 7453627,\n      \"name\": \"Ankit Kumar\",\n      \"email\": \"ankit.kumar@example.com\",\n      \"gender\": \"female\",\n      \"status\": \"inactive\"\n    },\n    {\n      \"id\": 7452059,\n      \"name\": \"Ankit Rajput\",\n      \"email\": \"an@gmail.com\",\n      \"gender\": \"male\",\n      \"status\": \"active\"\n    },\n    {\n      \"id\": 7452058,\n      \"name\": \"Ankit Rajput\",\n      \"email\": \"ankitrajput1234@gmail.com\",\n      \"gender\": \"male\",\n      \"status\": \"active\"\n    },\n    {\n      \"id\": 7452023,\n      \"name\": \"Ankit Rajput\",\n      \"email\": \"ankitrajput.unique@example.com\",\n      \"gender\": \"male\",\n      \"status\": \"active\"\n    }\n  ]\n}\n \n"}],"executorName":"pool-2-thread-5","line":44,"name":"Fetch user details when no ID is provided","description":"","durationMillis":613.112874,"startTime":1728302180327,"failed":false,"refId":"[5:44]","endTime":1728302180943,"exampleIndex":-1}],"callDepth":0,"name":"Get the user","description":"","resultDate":"2024-10-07 05:26:20 pm","durationMillis":3371.231416,"passedCount":5}